GCD Test
Bias: 5000.000000
CV_HPK_4287_11_-20C
Date/Time: 5/24/2018 5:47:21 PM
Sensor Name: HPK_4287_11
Type: P
Annealing Status: 0mins
Environment: -20C
Tester: Soumya

Time Delay per Ramp Step (s): 1.000

CV Time Delay per Measurement (s) :0.500

AC Voltage (V): 0.500

Current Number of measurements per voltage: 4.000

IV Time Delay per Measurement (s) :0.500


BiasVoltage	Total Current_Avg	Total Current_0	Total Current_1	Total Current_2	Total Current_3	LCR_Cp_freq1000.0	LCR_Cp_freq10000.0	LCR_Rp_freq1000.0	LCR_Rp_freq10000.0	Temperature	Air_Temp	Humidity	Dewpoint	
   -1.0000	-6.1200E-7	-6.1500E-7	-6.1100E-7	-6.1100E-7	-6.1100E-7	1.503E-10	5.552E-11	5.315E+5	3.497E+5	  -20.0039	   15.7396	    3.6739	  -27.1845	
   -2.0000	-6.5958E-7	-6.6050E-7	-6.6100E-7	-6.5720E-7	-6.5960E-7	1.691E-10	5.582E-11	6.191E+5	3.700E+5	  -20.0207	   15.7263	    3.6673	  -27.2132	
   -3.0000	-7.8018E-7	-7.7950E-7	-7.7910E-7	-7.8210E-7	-7.8000E-7	1.691E-10	5.601E-11	6.832E+5	3.851E+5	  -20.0237	   15.7455	    3.6638	  -27.2102	
   -4.0000	-8.8257E-7	-8.8160E-7	-8.8290E-7	-8.8260E-7	-8.8320E-7	1.674E-10	5.620E-11	7.422E+5	3.992E+5	  -20.0237	   15.7623	    3.6695	  -27.1818	
   -5.0000	-9.7622E-7	-9.7560E-7	-9.7690E-7	-9.7740E-7	-9.7500E-7	1.641E-10	5.639E-11	8.035E+5	4.107E+5	  -19.9905	   15.7517	    3.6695	  -27.1892	
   -6.0000	-1.0582E-6	-1.0590E-6	-1.0580E-6	-1.0580E-6	-1.0580E-6	1.601E-10	5.654E-11	8.746E+5	4.243E+5	  -19.9600	   15.7090	    3.6123	  -27.3883	
   -7.0000	-1.1247E-6	-1.1240E-6	-1.1260E-6	-1.1250E-6	-1.1240E-6	1.565E-10	5.666E-11	9.438E+5	4.368E+5	  -19.9539	   15.7181	    3.6072	  -27.3972	
   -8.0000	-1.1915E-6	-1.1980E-6	-1.1900E-6	-1.1890E-6	-1.1890E-6	1.536E-10	5.675E-11	1.016E+6	4.488E+5	  -19.9570	   15.6849	    3.5670	  -27.5407	
   -9.0000	-1.2440E-6	-1.2470E-6	-1.2440E-6	-1.2420E-6	-1.2430E-6	1.515E-10	5.681E-11	1.087E+6	4.599E+5	  -19.9799	   15.6759	    3.6173	  -27.3961	
  -10.0000	-1.3030E-6	-1.3050E-6	-1.3020E-6	-1.3030E-6	-1.3020E-6	1.495E-10	5.686E-11	1.158E+6	4.714E+5	  -20.0001	   15.6896	    3.7508	  -26.9953	
  -11.0000	-1.3515E-6	-1.3520E-6	-1.3510E-6	-1.3530E-6	-1.3500E-6	1.479E-10	5.688E-11	1.224E+6	4.811E+5	  -20.0264	   15.6981	    3.7239	  -27.0673	
  -12.0000	-1.3925E-6	-1.3930E-6	-1.3900E-6	-1.3930E-6	-1.3940E-6	1.465E-10	5.691E-11	1.283E+6	4.908E+5	  -20.0371	   15.6845	    3.7812	  -26.9116	
  -13.0000	-1.4437E-6	-1.4440E-6	-1.4440E-6	-1.4440E-6	-1.4430E-6	1.448E-10	5.693E-11	1.345E+6	4.993E+5	  -20.0394	   15.6727	    3.7413	  -27.0344	
  -14.0000	-1.5040E-6	-1.5040E-6	-1.5030E-6	-1.5040E-6	-1.5050E-6	1.433E-10	5.695E-11	1.403E+6	5.082E+5	  -20.0237	   15.6773	    3.7375	  -27.0422	
  -15.0000	-1.5505E-6	-1.5510E-6	-1.5510E-6	-1.5520E-6	-1.5480E-6	1.418E-10	5.696E-11	1.458E+6	5.161E+5	  -20.0317	   15.6846	    3.8833	  -26.6224	
  -16.0000	-1.6138E-6	-1.6150E-6	-1.6140E-6	-1.6130E-6	-1.6130E-6	1.401E-10	5.698E-11	1.512E+6	5.235E+5	  -19.9997	   15.6652	    3.8880	  -26.6226	
  -17.0000	-1.6525E-6	-1.6560E-6	-1.6530E-6	-1.6500E-6	-1.6510E-6	1.382E-10	5.694E-11	1.567E+6	5.323E+5	  -19.9848	   15.6580	    3.8033	  -26.8667	
  -18.0000	-1.7040E-6	-1.7090E-6	-1.7010E-6	-1.7020E-6	-1.7040E-6	1.363E-10	5.694E-11	1.622E+6	5.410E+5	  -19.9730	   15.6299	    3.8046	  -26.8826	
  -19.0000	-1.7363E-6	-1.7410E-6	-1.7340E-6	-1.7330E-6	-1.7370E-6	1.344E-10	5.689E-11	1.678E+6	5.506E+5	  -19.9772	   15.6372	    3.8131	  -26.8532	
  -20.0000	-1.7845E-6	-1.7940E-6	-1.7810E-6	-1.7800E-6	-1.7830E-6	1.328E-10	5.684E-11	1.730E+6	5.592E+5	  -19.9722	   15.6191	    3.7486	  -27.0506	
  -40.0000	-2.4785E-6	-2.4770E-6	-2.4790E-6	-2.4780E-6	-2.4800E-6	1.083E-10	5.598E-11	2.624E+6	7.399E+5	  -19.9966	   15.6227	    3.7018	  -27.1839	
  -60.0000	-3.0203E-6	-3.0200E-6	-3.0230E-6	-3.0170E-6	-3.0210E-6	9.089E-11	5.516E-11	3.436E+6	9.711E+5	  -20.0294	   15.6409	    3.6844	  -27.2221	
  -80.0000	-3.4182E-6	-3.4120E-6	-3.4200E-6	-3.4180E-6	-3.4230E-6	7.545E-11	5.482E-11	4.979E+6	1.295E+6	  -20.0581	   15.6267	    3.7109	  -27.1544	
 -100.0000	-3.7245E-6	-3.7230E-6	-3.7230E-6	-3.7250E-6	-3.7270E-6	5.922E-11	5.192E-11	1.192E+7	1.881E+6	  -20.0371	   15.6007	    3.7239	  -27.1346	
 -120.0000	-3.8447E-6	-3.8570E-6	-3.8390E-6	-3.8300E-6	-3.8530E-6	5.596E-11	5.184E-11	2.193E+7	2.107E+6	  -20.0134	   15.5979	    3.7103	  -27.1761	
 -140.0000	-4.0120E-6	-4.0210E-6	-4.0020E-6	-3.9950E-6	-4.0300E-6	5.465E-11	5.168E-11	3.690E+7	2.220E+6	  -19.9951	   15.5912	    3.6344	  -27.4038	
 -160.0000	-4.1413E-6	-4.1310E-6	-4.1380E-6	-4.1540E-6	-4.1420E-6	5.405E-11	5.151E-11	5.499E+7	2.284E+6	  -19.9326	   15.5777	    3.6591	  -27.3402	
 -180.0000	-4.1815E-6	-4.2060E-6	-4.1920E-6	-4.1650E-6	-4.1630E-6	5.373E-11	5.130E-11	7.224E+7	2.316E+6	  -19.9551	   15.5651	    3.6199	  -27.4650	
 -200.0000	-4.2217E-6	-4.2380E-6	-4.2410E-6	-4.2040E-6	-4.2040E-6	5.354E-11	5.110E-11	8.619E+7	2.341E+6	  -19.9905	   15.5327	    3.5569	  -27.6761	
 -220.0000	-4.2503E-6	-4.2430E-6	-4.2620E-6	-4.2530E-6	-4.2430E-6	5.338E-11	5.089E-11	9.561E+7	2.343E+6	  -20.0356	   15.5373	    3.5927	  -27.5654	
 -240.0000	-4.3078E-6	-4.2850E-6	-4.3050E-6	-4.3290E-6	-4.3120E-6	5.325E-11	5.053E-11	9.738E+7	2.214E+6	  -20.0645	   15.5326	    3.5968	  -27.5564	
 -260.0000	-4.4150E-6	-4.4220E-6	-4.4090E-6	-4.3940E-6	-4.4350E-6	5.314E-11	5.029E-11	9.460E+7	2.139E+6	  -20.0527	   15.5258	    3.6006	  -27.5497	
 -280.0000	-4.5130E-6	-4.5260E-6	-4.5010E-6	-4.5060E-6	-4.5190E-6	5.305E-11	4.994E-11	9.749E+7	2.066E+6	  -19.9596	   15.5305	    3.6205	  -27.4870	
 -300.0000	-4.5435E-6	-4.5320E-6	-4.5330E-6	-4.5530E-6	-4.5560E-6	5.299E-11	4.994E-11	9.924E+7	2.174E+6	  -19.9478	   15.5120	    3.6616	  -27.3782	
 -320.0000	-4.5495E-6	-4.5570E-6	-4.5280E-6	-4.5450E-6	-4.5680E-6	5.294E-11	4.887E-11	8.797E+7	1.803E+6	  -19.9696	   15.5091	    3.6297	  -27.4746	
 -340.0000	-4.5955E-6	-4.6120E-6	-4.6100E-6	-4.5820E-6	-4.5780E-6	5.288E-11	4.729E-11	7.823E+7	1.578E+6	  -19.9936	   15.5104	    3.6075	  -27.5396	
 -360.0000	-4.6377E-6	-4.6570E-6	-4.6470E-6	-4.6120E-6	-4.6350E-6	5.266E-11	4.764E-11	8.322E+7	1.649E+6	  -19.9684	   15.4990	    3.6161	  -27.5220	
 -380.0000	-4.6843E-6	-4.6750E-6	-4.6910E-6	-4.6980E-6	-4.6730E-6	5.263E-11	4.778E-11	7.533E+7	1.689E+6	  -19.9825	   15.4876	    3.5870	  -27.6168	
 -400.0000	-4.7323E-6	-4.7480E-6	-4.7280E-6	-4.7180E-6	-4.7350E-6	5.254E-11	4.738E-11	7.139E+7	1.665E+6	  -19.9791	   15.4797	    3.5563	  -27.7146	
 -420.0000	-4.7172E-6	-4.7160E-6	-4.7430E-6	-4.7080E-6	-4.7020E-6	5.246E-11	4.780E-11	7.730E+7	1.735E+6	  -20.0172	   15.4924	    3.4700	  -27.9697	
 -440.0000	-4.7303E-6	-4.7310E-6	-4.7170E-6	-4.7340E-6	-4.7390E-6	5.240E-11	4.786E-11	7.696E+7	1.763E+6	  -20.0638	   15.4973	    3.5626	  -27.6833	
 -460.0000	-4.8095E-6	-4.8160E-6	-4.8250E-6	-4.7940E-6	-4.8030E-6	5.231E-11	4.786E-11	7.502E+7	1.779E+6	  -20.0691	   15.5000	    3.6202	  -27.5090	
 -480.0000	-4.8983E-6	-4.8880E-6	-4.9170E-6	-4.8860E-6	-4.9020E-6	5.220E-11	4.799E-11	7.516E+7	1.828E+6	  -19.9970	   15.4804	    3.5228	  -27.8158	
 -500.0000	-4.9770E-6	-4.9590E-6	-4.9700E-6	-4.9960E-6	-4.9830E-6	5.211E-11	4.800E-11	7.337E+7	1.841E+6	  -19.9684	   15.4775	    3.4940	  -27.9059	
 -520.0000	-5.0223E-6	-5.0370E-6	-5.0290E-6	-5.0030E-6	-5.0200E-6	5.203E-11	4.789E-11	7.284E+7	1.834E+6	  -19.9306	   15.4713	    3.4826	  -27.9451	
 -540.0000	-5.0328E-6	-5.0540E-6	-5.0420E-6	-5.0100E-6	-5.0250E-6	5.190E-11	4.796E-11	7.060E+7	1.866E+6	  -19.9387	   15.4768	    3.4984	  -27.8928	
 -560.0000	-5.0435E-6	-5.0540E-6	-5.0240E-6	-5.0550E-6	-5.0410E-6	5.179E-11	4.761E-11	7.133E+7	1.798E+6	  -19.9631	   15.4690	    3.5443	  -27.7583	
 -580.0000	-5.0185E-6	-5.0200E-6	-5.0310E-6	-5.0330E-6	-4.9900E-6	5.169E-11	4.727E-11	6.634E+7	1.743E+6	  -20.0455	   15.4657	    3.5636	  -27.7023	
 -600.0000	-5.0175E-6	-5.0110E-6	-4.9980E-6	-5.0330E-6	-5.0280E-6	5.153E-11	4.664E-11	6.496E+7	1.669E+6	  -20.1141	   15.4737	    3.6101	  -27.5574	
 -620.0000	-5.0878E-6	-5.0800E-6	-5.0690E-6	-5.0950E-6	-5.1070E-6	5.144E-11	4.695E-11	6.721E+7	1.716E+6	  -20.1115	   15.4305	    3.6091	  -27.5900	
 -640.0000	-5.1970E-6	-5.1950E-6	-5.1800E-6	-5.2020E-6	-5.2110E-6	5.135E-11	4.714E-11	6.633E+7	1.748E+6	  -20.0703	   15.4446	    3.6148	  -27.5633	
 -660.0000	-5.3410E-6	-5.3470E-6	-5.3350E-6	-5.3220E-6	-5.3600E-6	5.123E-11	4.690E-11	6.753E+7	1.716E+6	  -20.0058	   15.4467	    3.5740	  -27.6840	
 -680.0000	-5.4345E-6	-5.4290E-6	-5.4260E-6	-5.4470E-6	-5.4360E-6	5.116E-11	4.697E-11	6.868E+7	1.732E+6	  -19.8860	   15.4437	    3.5689	  -27.7012	
 -700.0000	-5.4685E-6	-5.4550E-6	-5.4860E-6	-5.4850E-6	-5.4480E-6	5.106E-11	4.732E-11	7.008E+7	1.794E+6	  -19.8624	   15.4106	    3.6047	  -27.6170	
 -720.0000	-5.4520E-6	-5.4540E-6	-5.4760E-6	-5.4510E-6	-5.4270E-6	5.099E-11	4.716E-11	7.085E+7	1.775E+6	  -19.8978	   15.3910	    3.6565	  -27.4767	
 -740.0000	-5.4333E-6	-5.4380E-6	-5.4240E-6	-5.4270E-6	-5.4440E-6	5.084E-11	4.628E-11	6.921E+7	1.656E+6	  -19.9490	   15.3998	    3.5892	  -27.6707	
 -760.0000	-5.4338E-6	-5.4550E-6	-5.4350E-6	-5.4130E-6	-5.4320E-6	5.079E-11	4.630E-11	7.023E+7	1.662E+6	  -20.0180	   15.4325	    3.5980	  -27.6217	
 -780.0000	-5.3948E-6	-5.4060E-6	-5.3790E-6	-5.3900E-6	-5.4040E-6	5.074E-11	4.652E-11	7.149E+7	1.694E+6	  -20.0974	   15.4710	    3.5202	  -27.8300	
 -800.0000	-5.4512E-6	-5.4590E-6	-5.4310E-6	-5.4530E-6	-5.4620E-6	5.064E-11	4.645E-11	7.302E+7	1.687E+6	  -20.1443	   15.4693	    3.5202	  -27.8312	
 -820.0000	-5.5892E-6	-5.5900E-6	-5.5780E-6	-5.5780E-6	-5.6110E-6	5.057E-11	4.617E-11	7.270E+7	1.657E+6	  -20.1244	   15.4421	    3.5022	  -27.9050	
 -840.0000	-5.7398E-6	-5.7530E-6	-5.7250E-6	-5.7300E-6	-5.7510E-6	5.053E-11	4.600E-11	7.421E+7	1.644E+6	  -20.0180	   15.4416	    3.4943	  -27.9296	
 -860.0000	-5.8792E-6	-5.8670E-6	-5.8720E-6	-5.8900E-6	-5.8880E-6	5.049E-11	4.649E-11	7.651E+7	1.698E+6	  -19.9444	   15.4004	    3.5187	  -27.8835	
 -880.0000	-5.9442E-6	-5.9550E-6	-5.9450E-6	-5.9320E-6	-5.9450E-6	5.047E-11	4.594E-11	7.479E+7	1.640E+6	  -19.8708	   15.3809	    3.6186	  -27.5960	
 -900.0000	-5.9498E-6	-5.9410E-6	-5.9780E-6	-5.9540E-6	-5.9260E-6	5.041E-11	4.648E-11	7.815E+7	1.703E+6	  -19.8967	   15.3509	    3.6382	  -27.5586	
 -920.0000	-5.9432E-6	-5.9650E-6	-5.9400E-6	-5.9240E-6	-5.9440E-6	5.041E-11	4.667E-11	7.844E+7	1.731E+6	  -19.9322	   15.3615	    3.5715	  -27.7503	
 -940.0000	-5.9472E-6	-5.9660E-6	-5.9680E-6	-5.9330E-6	-5.9220E-6	5.034E-11	4.662E-11	8.452E+7	1.733E+6	  -19.9986	   15.3853	    3.4719	  -28.0374	
 -960.0000	-5.9742E-6	-5.9780E-6	-6.0020E-6	-5.9620E-6	-5.9550E-6	5.030E-11	4.691E-11	8.390E+7	1.771E+6	  -20.0462	   15.3704	    3.4560	  -28.0966	
 -980.0000	-6.0425E-6	-6.0480E-6	-6.0290E-6	-6.0350E-6	-6.0580E-6	5.027E-11	4.663E-11	8.469E+7	1.730E+6	  -20.0760	   15.3772	    3.4447	  -28.1273	
-1000.0000	-6.1330E-6	-6.1370E-6	-6.1490E-6	-6.1140E-6	-6.1320E-6	5.028E-11	4.649E-11	8.454E+7	1.716E+6	  -20.0642	   15.3808	    3.5028	  -27.9453	
-1020.0000	-6.1885E-6	-6.1760E-6	-6.1840E-6	-6.2120E-6	-6.1820E-6	5.021E-11	4.640E-11	8.606E+7	1.709E+6	  -20.0642	   15.3593	    3.5655	  -27.7699	
-1040.0000	-6.2832E-6	-6.3020E-6	-6.2720E-6	-6.2630E-6	-6.2960E-6	5.019E-11	4.673E-11	8.603E+7	1.755E+6	  -20.0542	   15.3611	    3.5557	  -27.7982	
-1060.0000	-6.4243E-6	-6.3980E-6	-6.4260E-6	-6.4430E-6	-6.4300E-6	5.021E-11	4.617E-11	8.659E+7	1.681E+6	  -20.0172	   15.3491	    3.5073	  -27.9536	
-1080.0000	-6.5400E-6	-6.5420E-6	-6.5380E-6	-6.5520E-6	-6.5280E-6	5.024E-11	4.674E-11	8.714E+7	1.768E+6	  -19.9493	   15.3341	    3.5225	  -27.9175	
-1100.0000	 0.0000E+0	 0.0000E+0	 0.0000E+0	 0.0000E+0	 0.0000E+0	0.000E+0	0.000E+0	0.000E+0	0.000E+0	    0.0000	    0.0000	    0.0000	    0.0000	
